^C:\USERS\RILEY\SOURCE\REPOS\GBEMU\GBEMU\DEBUG\BUS.OBJ|C:\USERS\RILEY\SOURCE\REPOS\GBEMU\GBEMU\DEBUG\INSTRUCTIONS.OBJ|C:\USERS\RILEY\SOURCE\REPOS\GBEMU\GBEMU\DEBUG\MAIN.OBJ|C:\USERS\RILEY\SOURCE\REPOS\GBEMU\GBEMU\DEBUG\OPCODES.OBJ|C:\USERS\RILEY\SOURCE\REPOS\GBEMU\GBEMU\DEBUG\OPCODESCB.OBJ
C:\USERS\RILEY\SOURCE\REPOS\GBEMU\LIB\X86\SFML-WINDOW-S-D.LIB
C:\USERS\RILEY\SOURCE\REPOS\GBEMU\LIB\X86\SFML-GRAPHICS-S-D.LIB
C:\USERS\RILEY\SOURCE\REPOS\GBEMU\LIB\X86\SFML-MAIN.LIB
C:\PROGRAM FILES (X86)\WINDOWS KITS\10\LIB\10.0.18362.0\UM\X86\OPENGL32.LIB
C:\USERS\RILEY\SOURCE\REPOS\GBEMU\LIB\X86\FREETYPE.LIB
C:\USERS\RILEY\SOURCE\REPOS\GBEMU\LIB\X86\SFML-SYSTEM-S-D.LIB
C:\PROGRAM FILES (X86)\WINDOWS KITS\10\LIB\10.0.18362.0\UM\X86\WINMM.LIB
C:\PROGRAM FILES (X86)\WINDOWS KITS\10\LIB\10.0.18362.0\UM\X86\GDI32.LIB
C:\PROGRAM FILES (X86)\WINDOWS KITS\10\LIB\10.0.18362.0\UM\X86\KERNEL32.LIB
C:\PROGRAM FILES (X86)\WINDOWS KITS\10\LIB\10.0.18362.0\UM\X86\USER32.LIB
C:\PROGRAM FILES (X86)\WINDOWS KITS\10\LIB\10.0.18362.0\UM\X86\WINSPOOL.LIB
C:\PROGRAM FILES (X86)\WINDOWS KITS\10\LIB\10.0.18362.0\UM\X86\COMDLG32.LIB
C:\PROGRAM FILES (X86)\WINDOWS KITS\10\LIB\10.0.18362.0\UM\X86\ADVAPI32.LIB
C:\PROGRAM FILES (X86)\WINDOWS KITS\10\LIB\10.0.18362.0\UM\X86\SHELL32.LIB
C:\PROGRAM FILES (X86)\WINDOWS KITS\10\LIB\10.0.18362.0\UM\X86\OLE32.LIB
C:\PROGRAM FILES (X86)\WINDOWS KITS\10\LIB\10.0.18362.0\UM\X86\OLEAUT32.LIB
C:\PROGRAM FILES (X86)\WINDOWS KITS\10\LIB\10.0.18362.0\UM\X86\UUID.LIB
C:\PROGRAM FILES (X86)\WINDOWS KITS\10\LIB\10.0.18362.0\UM\X86\ODBC32.LIB
C:\PROGRAM FILES (X86)\WINDOWS KITS\10\LIB\10.0.18362.0\UM\X86\ODBCCP32.LIB
C:\USERS\RILEY\SOURCE\REPOS\GBEMU\GBEMU\DEBUG\BUS.OBJ
C:\USERS\RILEY\SOURCE\REPOS\GBEMU\GBEMU\DEBUG\INSTRUCTIONS.OBJ
C:\USERS\RILEY\SOURCE\REPOS\GBEMU\GBEMU\DEBUG\MAIN.OBJ
C:\USERS\RILEY\SOURCE\REPOS\GBEMU\GBEMU\DEBUG\OPCODES.OBJ
C:\USERS\RILEY\SOURCE\REPOS\GBEMU\GBEMU\DEBUG\OPCODESCB.OBJ
C:\WINDOWS\SYSTEM32\TZRES.DLL
C:\WINDOWS\GLOBALIZATION\SORTING\SORTDEFAULT.NLS
C:\PROGRAM FILES (X86)\MICROSOFT VISUAL STUDIO\2019\COMMUNITY\VC\TOOLS\MSVC\14.27.29110\LIB\X86\MSVCPRTD.LIB
C:\PROGRAM FILES (X86)\MICROSOFT VISUAL STUDIO\2019\COMMUNITY\VC\TOOLS\MSVC\14.27.29110\LIB\X86\MSVCRTD.LIB
C:\PROGRAM FILES (X86)\MICROSOFT VISUAL STUDIO\2019\COMMUNITY\VC\TOOLS\MSVC\14.27.29110\LIB\X86\OLDNAMES.LIB
C:\PROGRAM FILES (X86)\MICROSOFT VISUAL STUDIO\2019\COMMUNITY\VC\TOOLS\MSVC\14.27.29110\LIB\X86\VCRUNTIMED.LIB
C:\PROGRAM FILES (X86)\WINDOWS KITS\10\LIB\10.0.18362.0\UCRT\X86\UCRTD.LIB
C:\PROGRAM FILES (X86)\MICROSOFT VISUAL STUDIO\2019\COMMUNITY\VC\TOOLS\MSVC\14.27.29110\BIN\HOSTX86\X86\MSPDBSRV.EXE
